%YAML 1.1
%TAG !u! tag:unity3d.com,2011:
--- !u!74 &7400000
AnimationClip:
  m_ObjectHideFlags: 0
  m_CorrespondingSourceObject: {fileID: 0}
  m_PrefabInstance: {fileID: 0}
  m_PrefabAsset: {fileID: 0}
  m_Name: Mace_Idle
  serializedVersion: 6
  m_Legacy: 0
  m_Compressed: 0
  m_UseHighQualityCurve: 1
  m_RotationCurves: []
  m_CompressedRotationCurves: []
  m_EulerCurves: []
  m_PositionCurves: []
  m_ScaleCurves: []
  m_FloatCurves: []
  m_PPtrCurves:
  - curve:
    - time: 0
      value: {fileID: 3921425457498842617, guid: 4e799fb2938806a408889e2d074606cc,
        type: 3}
    - time: 0.083333336
      value: {fileID: 5681181303212675901, guid: 4e799fb2938806a408889e2d074606cc,
        type: 3}
    - time: 0.16666667
      value: {fileID: 21220297177811288, guid: 4e799fb2938806a408889e2d074606cc, type: 3}
    - time: 0.25
      value: {fileID: 4546410740288888356, guid: 4e799fb2938806a408889e2d074606cc,
        type: 3}
    - time: 0.33333334
      value: {fileID: 621338310843753519, guid: 4e799fb2938806a408889e2d074606cc,
        type: 3}
    - time: 0.41666666
      value: {fileID: -5675910084441776498, guid: 4e799fb2938806a408889e2d074606cc,
        type: 3}
    - time: 0.5
      value: {fileID: 8890923715866877364, guid: 4e799fb2938806a408889e2d074606cc,
        type: 3}
    - time: 0.5833333
      value: {fileID: 6532067534239522619, guid: 4e799fb2938806a408889e2d074606cc,
        type: 3}
    - time: 0.6666667
      value: {fileID: -5999467948827648559, guid: 4e799fb2938806a408889e2d074606cc,
        type: 3}
    - time: 0.75
      value: {fileID: 2204895290969073940, guid: 4e799fb2938806a408889e2d074606cc,
        type: 3}
    attribute: m_Sprite
    path: 
    classID: 212
    script: {fileID: 0}
  m_SampleRate: 12
  m_WrapMode: 0
  m_Bounds:
    m_Center: {x: 0, y: 0, z: 0}
    m_Extent: {x: 0, y: 0, z: 0}
  m_ClipBindingConstant:
    genericBindings:
    - serializedVersion: 2
      path: 0
      attribute: 0
      script: {fileID: 0}
      typeID: 212
      customType: 23
      isPPtrCurve: 1
    pptrCurveMapping:
    - {fileID: 3921425457498842617, guid: 4e799fb2938806a408889e2d074606cc, type: 3}
    - {fileID: 5681181303212675901, guid: 4e799fb2938806a408889e2d074606cc, type: 3}
    - {fileID: 21220297177811288, guid: 4e799fb2938806a408889e2d074606cc, type: 3}
    - {fileID: 4546410740288888356, guid: 4e799fb2938806a408889e2d074606cc, type: 3}
    - {fileID: 621338310843753519, guid: 4e799fb2938806a408889e2d074606cc, type: 3}
    - {fileID: -5675910084441776498, guid: 4e799fb2938806a408889e2d074606cc, type: 3}
    - {fileID: 8890923715866877364, guid: 4e799fb2938806a408889e2d074606cc, type: 3}
    - {fileID: 6532067534239522619, guid: 4e799fb2938806a408889e2d074606cc, type: 3}
    - {fileID: -5999467948827648559, guid: 4e799fb2938806a408889e2d074606cc, type: 3}
    - {fileID: 2204895290969073940, guid: 4e799fb2938806a408889e2d074606cc, type: 3}
  m_AnimationClipSettings:
    serializedVersion: 2
    m_AdditiveReferencePoseClip: {fileID: 0}
    m_AdditiveReferencePoseTime: 0
    m_StartTime: 0
    m_StopTime: 0.8333333
    m_OrientationOffsetY: 0
    m_Level: 0
    m_CycleOffset: 0
    m_HasAdditiveReferencePose: 0
    m_LoopTime: 1
    m_LoopBlend: 0
    m_LoopBlendOrientation: 0
    m_LoopBlendPositionY: 0
    m_LoopBlendPositionXZ: 0
    m_KeepOriginalOrientation: 0
    m_KeepOriginalPositionY: 1
    m_KeepOriginalPositionXZ: 0
    m_HeightFromFeet: 0
    m_Mirror: 0
  m_EditorCurves: []
  m_EulerEditorCurves: []
  m_HasGenericRootTransform: 0
  m_HasMotionFloatCurves: 0
  m_Events: []
